<?xml version="1.0" encoding="utf-8"?>
<!-- Generator: Adobe Illustrator 23.1.1, SVG Export Plug-In . SVG Version: 6.00 Build 0)  -->
<svg version="1.1" id="Laag_1" xmlns="http://www.w3.org/2000/svg" xmlns:xlink="http://www.w3.org/1999/xlink" x="0px" y="0px"
	 viewBox="0 0 150 150" style="enable-background:new 0 0 150 150;" xml:space="preserve">
<style type="text/css">
	.st0{fill:#EF7D00;}
</style>
<g>
	<polygon class="st0" points="65.81,62.48 54.17,49.85 67.75,49.85 67.75,24.61 87.14,40.84 112.36,21 98.78,57.07 96.84,44.44 
		89.08,49.85 75.5,39.03 73.56,55.27 63.87,55.27 	"/>
	<path class="st0" d="M53.99,71.62c-11.16-9.82-19.41-17.18-24.82-21.78c-3.83-3.26-6.36-3.59-7.68-3.59h-8.05v8.51h6.63
		c2.22,0,4.6,0.94,6.17,2.24c2.2,1.83,11.03,9.56,14.48,12.65c3.1,2.77,1.67,3.35-0.61,3.35c0,0-12.52,0.01-26.67,0.01v32.1h29.77
		c2.37,6.23,8.74,10.71,16.26,10.71c7.87,0,14.49-4.9,16.58-11.59c2.78-1.77,6.44-5.74,6.44-7.52V81.62
		C82.49,77.52,73.41,75.18,53.99,71.62z M59.47,107.79c-4.76,0-8.64-3.6-8.64-8.03c0-4.42,3.87-8.02,8.64-8.02
		c4.76,0,8.63,3.6,8.63,8.02C68.1,104.19,64.22,107.79,59.47,107.79z"/>
	<path class="st0" d="M139.51,73h-21.15c-2.62,0.01-3.86-1.39-1.31-4.68c2.23-2.87,7.48-9.19,8.72-10.79
		c1.61-2.08,2.64-2.77,5.48-2.77h8.26v-8.51H128.8c-3.73,0-5.77,0.64-7.68,3.59c-1.9,2.95-12.35,14.5-14.69,18.37
		c-15.5,3-17.77,5.74-17.77,10.03v18.47c0,2.32,6.25,8.4,8.64,8.4h3.88c2.37,6.23,8.74,10.71,16.27,10.71
		c7.52,0,13.89-4.47,16.27-10.71h5.81V73z M117.44,107.79c-4.76,0-8.64-3.6-8.64-8.03c0-4.42,3.87-8.02,8.64-8.02
		c4.76,0,8.63,3.6,8.63,8.02C126.07,104.19,122.2,107.79,117.44,107.79z"/>
</g>
</svg>
