<?xml version="1.0" encoding="utf-8"?>
<!-- Generator: Adobe Illustrator 23.1.1, SVG Export Plug-In . SVG Version: 6.00 Build 0)  -->
<svg version="1.1" id="Laag_1" xmlns="http://www.w3.org/2000/svg" xmlns:xlink="http://www.w3.org/1999/xlink" x="0px" y="0px"
	 viewBox="0 0 150 150" style="enable-background:new 0 0 150 150;" xml:space="preserve">
<style type="text/css">
	.st0{fill:#595656;}
</style>
<path class="st0" d="M136,59.9V34.8c0-5.4-4.4-9.8-9.8-9.8h-2.7H30.6h-2.7c-5.4,0-9.8,4.4-9.8,9.8v25.1l0,0v41.7
	c0,5.4,4.4,9.8,9.8,9.8h0h33.4c0,2.8-1.1,5.4-2.2,7.5c-0.7,1.3-1.3,2.5-1.6,3.4c-0.1,0.3-0.2,0.6-0.2,0.9c0,2.2,1.8,3.9,3.9,3.9
	h31.4c2.2,0,3.9-1.8,3.9-3.9c0-0.3-0.1-0.6-0.2-0.9c-0.3-0.9-0.9-2.1-1.6-3.4c-1.1-2.1-2.2-4.7-2.2-7.5h33.4h0
	c5.4,0,9.8-4.4,9.8-9.8L136,59.9L136,59.9z M27.9,87.9c-1,0-2-0.9-2-2V34.8c0-1,0.9-2,2-2h10.6h77.1h10.6c1.1,0,2,0.9,2,2v51.1
	c0,1-0.9,2-2,2H27.9z"/>
<g>
	<path class="st0" d="M96.5,72.6h6v-11c0-2.1,0.5-4.2,3.4-4.2c2.7,0,3.2,2,3.2,4.2v11h6V60c0-2.7-0.7-8.2-7.5-8.2
		c-3.6,0-4.9,1.8-5.6,2.8v-2.1h-5.6V72.6z M91.8,52.4h-6v20c0,1.4,0,3.1-2.1,3.1h-0.8V80h1.5c6.6,0,7.5-3.2,7.5-7.8V52.4z
		 M85.8,50.3h6v-4.6h-6V50.3z M74.4,72.6h6V52.4h-6V72.6z M74.4,50.3h6v-4.6h-6V50.3z M39.2,72.6h6V61.9c0-0.6,0-1.7,0.4-2.7
		s1.3-1.8,3-1.8c1.5,0,2.3,0.8,2.7,1.7c0.4,0.9,0.4,2,0.4,2.5v11h6v-11c0-0.6,0-1.6,0.4-2.5c0.4-0.9,1.2-1.7,2.9-1.7
		c1.6,0,2.3,0.7,2.7,1.6c0.4,0.9,0.4,2,0.4,2.8v10.7h6v-11c0-4.5-0.3-5.8-2.2-7.8c-1.6-1.7-3.9-2-5.3-2c-2.1,0-3.8,0.8-4.9,1.8
		c-0.6,0.5-1,1.1-1.5,1.7c-0.4-0.7-0.8-1.2-1.2-1.7c-1.5-1.6-3.2-1.9-4.6-1.9c-2.1,0-3.5,0.7-4.4,1.4c-0.9,0.7-1.2,1.4-1.2,1.4v-2.1
		h-5.6L39.2,72.6L39.2,72.6z"/>
</g>
</svg>
