<?xml version="1.0" encoding="utf-8"?>
<!-- Generator: Adobe Illustrator 23.1.1, SVG Export Plug-In . SVG Version: 6.00 Build 0)  -->
<svg version="1.1" id="Laag_1" xmlns="http://www.w3.org/2000/svg" xmlns:xlink="http://www.w3.org/1999/xlink" x="0px" y="0px"
	 viewBox="0 0 150 150" style="enable-background:new 0 0 150 150;" xml:space="preserve">
<style type="text/css">
	.st0{fill:#585555;}
	.st1{fill:#FFFFFF;}
</style>
<g>
	<path class="st0" d="M113.7,90.7c0-0.5,0-0.9-0.2-1.4c-0.5-1.4-3.7-2.8-5-3.5c-3.7-2.1-7.5-4.1-11.2-6.3c-1.7-1-3.8-3-5.8-3
		c-4,0-9.8,11.8-13.3,11.8c-1.8,0-4.1-1.6-5.6-2.6c-11.9-6.6-20.1-14.9-26.8-26.8c-0.9-1.6-2.5-3.9-2.5-5.6C43.2,50,55,44.2,55,40.2
		c0-2-2-4.1-3-5.8c-2.2-3.7-4.2-7.5-6.3-11.2c-0.7-1.3-2.1-4.5-3.5-5C41.8,18,41.4,18,40.9,18c-2.3,0-6.9,1-9.1,2
		c-3.2,1.4-5.3,5-6.9,8c-2.1,3.9-3.3,7.8-3.3,12.2c0,6.1,2.5,11.6,4.5,17.1c1.4,4,3.2,7.8,5.4,11.4c6.9,11.1,20.3,24.5,31.4,31.4
		c3.6,2.2,7.5,4,11.4,5.4c5.6,2,11.1,4.5,17.1,4.5c4.4,0,8.3-1.2,12.2-3.3c2.9-1.6,6.6-3.7,8-6.9C112.6,97.7,113.7,93.1,113.7,90.7"
		/>
</g>
<circle class="st1" cx="111.9" cy="108.8" r="28.1"/>
<path class="st0" d="M112.2,85.7c-12.5,0-22.7,10.1-22.7,22.6S99.7,131,112.2,131s22.7-10.1,22.7-22.6c0,0,0,0,0,0
	C134.9,95.9,124.8,85.7,112.2,85.7z"/>
<g>
	<path class="st1" d="M123.6,100.8c0-1-0.8-1.8-1.8-1.8h-1.8v-1.3c0-1.2-1-2.2-2.2-2.2H117c-1.2,0-2.2,1-2.2,2.2V99h-5.2v-1.3
		c0-1.2-1-2.2-2.2-2.2h-0.9c-1.2,0-2.2,1-2.2,2.2V99h-1.8c-1,0-1.8,0.8-1.8,1.8v17.5c0,1,0.8,1.8,1.8,1.8h19.3c1,0,1.8-0.8,1.8-1.8
		L123.6,100.8L123.6,100.8z M118.3,101.6c0,0.2-0.2,0.4-0.4,0.4H117c-0.2,0-0.4-0.2-0.4-0.4v-3.9c0-0.2,0.2-0.4,0.4-0.4h0.9
		c0.2,0,0.4,0.2,0.4,0.4V101.6z M107.8,101.6c0,0.2-0.2,0.4-0.4,0.4h-0.9c-0.2,0-0.4-0.2-0.4-0.4v-3.9c0-0.2,0.2-0.4,0.4-0.4h0.9
		c0.2,0,0.4,0.2,0.4,0.4V101.6z M102.6,104.3h19.3v14h-19.3V104.3z"/>
</g>
</svg>
