<?xml version="1.0" encoding="utf-8"?>
<!-- Generator: Adobe Illustrator 23.1.1, SVG Export Plug-In . SVG Version: 6.00 Build 0)  -->
<svg version="1.1" id="Laag_1" xmlns="http://www.w3.org/2000/svg" xmlns:xlink="http://www.w3.org/1999/xlink" x="0px" y="0px"
	 viewBox="0 0 150 150" style="enable-background:new 0 0 150 150;" xml:space="preserve">
<style type="text/css">
	.st0{fill:#FFFFFF;}
</style>
<g>
	<g>
		<path class="st0" d="M58.23,68.59v3.54c0,0.99,0.77,1.77,1.77,1.77h38.94c1,0,1.77-0.78,1.77-1.77v-3.54c0-1-0.78-1.77-1.77-1.77
			H60C59,66.82,58.23,67.59,58.23,68.59z"/>
		<path class="st0" d="M98.93,80.98H60c-1,0-1.77,0.77-1.77,1.77v3.54c0,1,0.77,1.77,1.77,1.77h38.94c1,0,1.77-0.77,1.77-1.77v-3.54
			C100.71,81.75,99.93,80.98,98.93,80.98z"/>
	</g>
	<g>
		<g>
			<path class="st0" d="M87.91,117.53c0-0.39,0.04-0.77,0.06-1.15h-43.9V31.42h42.48v23.01c0,2.93,2.38,5.31,5.31,5.31h23.01v28.08
				c0.95-0.09,1.92-0.15,2.9-0.15c1.42,0,2.81,0.13,4.18,0.33V54.43c0-2.93-1.71-7.02-3.76-9.07L100.93,28.1
				c-0.32-0.32-0.77-0.61-1.18-0.91v-8.39c0-5.01-4.08-9.09-9.09-9.09H24.35c-5.01,0-9.09,4.08-9.09,9.09v88.16
				c0,5.01,4.08,9.09,9.09,9.09h12.63v2.1c0,2.93,2.38,5.31,5.31,5.31h46.21C88.12,121.54,87.91,119.56,87.91,117.53z M93.63,31.86
				c0.94,0.33,1.88,0.83,2.27,1.22l17.31,17.31c0.39,0.39,0.89,1.33,1.22,2.27h-20.8V31.86z M36.98,29.65v79.24H24.35
				c-1.04,0-1.93-0.88-1.93-1.93V18.79c0-1.04,0.88-1.93,1.93-1.93h66.31c1.04,0,1.93,0.88,1.93,1.93v5.64
				c-0.24-0.02-0.5-0.09-0.73-0.09H42.3C39.36,24.34,36.98,26.72,36.98,29.65z"/>
		</g>
		<path class="st0" d="M98.08,95.14H60c-1,0-1.77,0.78-1.77,1.77v3.54c0,1,0.77,1.77,1.77,1.77h32.19
			C93.78,99.56,95.77,97.17,98.08,95.14z"/>
	</g>
	<path class="st0" d="M117.76,95.93c-11.92,0-21.59,9.67-21.59,21.59c0,11.93,9.67,21.59,21.59,21.59
		c11.93,0,21.59-9.67,21.59-21.59C139.36,105.6,129.69,95.93,117.76,95.93z M124.46,126.79c-0.06,0.01-1.34,0.46-3,0.46
		c-4.31,0-7.77-2.59-8.93-6.65h-1.31c-0.25,0-0.44-0.21-0.44-0.44v-1.56c0-0.23,0.19-0.44,0.44-0.44h0.91
		c-0.01-0.44-0.01-0.97,0.01-1.45h-0.92c-0.25,0-0.44-0.19-0.44-0.44v-1.57c0-0.25,0.19-0.44,0.44-0.44h1.35
		c1.23-3.86,4.76-6.43,8.89-6.43c1.44,0,2.62,0.3,2.68,0.32c0.11,0.03,0.21,0.11,0.28,0.21c0.06,0.1,0.07,0.22,0.04,0.33l-0.59,2.19
		c-0.06,0.23-0.29,0.37-0.52,0.3c-0.01,0-0.95-0.23-1.93-0.23c-2.32,0-4.26,1.26-5.19,3.31h6.46c0.14,0,0.26,0.06,0.35,0.17
		c0.08,0.1,0.12,0.23,0.1,0.36l-0.33,1.57c-0.04,0.21-0.22,0.36-0.44,0.36h-6.74c-0.04,0.44-0.03,0.91,0,1.45h6.34
		c0.14,0,0.26,0.07,0.34,0.17c0.08,0.11,0.11,0.25,0.08,0.37l-0.33,1.55c-0.04,0.21-0.22,0.36-0.43,0.36h-5.34
		c0.88,2.15,2.87,3.5,5.22,3.5c1.2,0,2.18-0.33,2.19-0.33c0.11-0.04,0.25-0.03,0.36,0.03c0.11,0.07,0.18,0.18,0.21,0.29l0.48,2.19
		C124.79,126.5,124.66,126.72,124.46,126.79z"/>
</g>
</svg>
